{
  "keys": ["proposalNumber", "proposerName", "productName", "adviserName", "supervisorName", "approvalDate", "approvalRemakrsText"],
  "sms": "The case proposalNumber for proposerName has been approved by your supervisor and submitted to CDA team for validation.",
  "email": {
    "subject": "Case proposalNumber productName approved",
    "template": "Dear adviserName,<br /><br />The case proposalNumber for proposerName has been approved by supervisorName on approvalDate and submitted to CDA team for validation.<br /><br /><b>Approval Remarks: </b>approvalRemarksText<br /><br />Your sincerely,<br />AXA Insurance Pte Ltd<p><img src='cid:part1.1234.56789' height='70' width='75'></p>"
  }
}
