{
  "keys": ["adviserName", "managerName", "submissionDate", "proposalNumber", "clientName", "productName", "agentName", "expiryDate"],
  "sms": "Submission from adviserName under managerName on submissionDate, proposalNumber for clientName is still pending validation. Please validate before expiryDate, otherwise case will expire and needs to be recreated.",
  "email": {
    "subject": "New proposalNumber, productName by agentName still pending validation",
    "template": "Dear Director,<br /><br />The case from adviserName under managerName submitted on submissionDate, proposalNumber for clientName is still pending for validation by the supervisor. Please validate before expiryDate, otherwise the submitted case will expire and your Financial Consultant will need to revisit customer and resubmit the case.<br /><br />AXA Insurance Pte Ltd<p><img src='cid:part1.1234.56789' height='70' width='75'></p>"
  }
}
