{
  "keys": ["productName", "proposalNumber", "proposerName", "rejectionDate", "adviserName", "faAdminRejectionCommentText", "faAdminreasonForRejection"],
  "email": {
    "subject": "Case proposalNumber, productName is rejected by FA Firm",
    "template": "Dear adviserName,<br /><br />The case proposalNumber for proposerName has been rejected by FA Firm on rejectionDate.<br /><br /><b>Reason for Rejection: </b> faAdminreasonForRejection <br/>faAdminRejectionCommentText<br /><br />AXA Insurance Pte Ltd<p><img src='cid:part1.1234.56789' height='70' width='75'></p>"
  }
}
